{
  "matrix": [
    570.7313524088163,
    0.0,
    309.2322506015805,
    0.0,
    687.4091455501301,
    244.82370934961995,
    0.0,
    0.0,
    1.0
  ],
  "distortion": [
    -0.13596866804940838,
    0.8299633734083905,
    -6.136526429184055e-05,
    0.00032067714746377427,
    -1.4417410668264905
  ]
}